EVENT TYPE,TIMESTAMP,DURATION,SESSION ID,TRANSACTION ID,DATASTORE,CONTEXT,SUBSYSTEM,PHASE,SERVICE,SERVICE PHASE,COMMIT QUEUE ID,NODE,DEVICE,DEVICE PHASE,PACKAGE,MESSAGE,ANNOTATION
start,2020-10-16T12:20:33.605,,79,136,running,cli,,,,,,,,,,"applying transaction",
start,2020-10-16T12:20:33.606,,79,136,running,cli,,validate,,,,,,,,"validate",
start,2020-10-16T12:20:33.606,,79,136,running,cli,,,,,,,,,,"grabbing transaction lock",
stop,2020-10-16T12:20:33.606,0.000,79,136,running,cli,,,,,,,,,,"grabbing transaction lock",
start,2020-10-16T12:20:33.607,,79,136,running,cli,,,,,,,,,,"creating rollback file",
stop,2020-10-16T12:20:33.609,0.002,79,136,running,cli,,,,,,,,,,"creating rollback file",
start,2020-10-16T12:20:33.610,,79,136,running,cli,,,,,,,,,,"run transforms and transaction hooks",
start,2020-10-16T12:20:33.610,,79,136,running,cli,,,,,,,,,,"run pre-transform validation",
stop,2020-10-16T12:20:33.611,0.000,79,136,running,cli,,,,,,,,,,"run pre-transform validation",
start,2020-10-16T12:20:33.613,,79,136,running,cli,,,/slow-service[name='FOO'],,,,,,,"run service",
start,2020-10-16T12:20:33.613,,79,136,running,cli,,,/slow-service[name='FOO'],pre-modification,,,,,,"pre-modification",
stop,2020-10-16T12:20:33.614,0.000,79,136,running,cli,,,/slow-service[name='FOO'],pre-modification,,,,,,"pre-modification",
start,2020-10-16T12:20:33.615,,79,136,running,cli,,,/slow-service[name='FOO'],create,,,,,,"create",
stop,2020-10-16T12:20:33.625,0.009,79,136,running,cli,,,/slow-service[name='FOO'],create,,,,,,"create",
start,2020-10-16T12:20:33.625,,79,136,running,cli,,,/slow-service[name='FOO'],,,,,,,"saving FASTMAP reverse diff-set and applying changes",
stop,2020-10-16T12:20:33.647,0.021,79,136,running,cli,,,/slow-service[name='FOO'],,,,,,,"saving FASTMAP reverse diff-set and applying changes",
start,2020-10-16T12:20:33.647,,79,136,running,cli,,,/slow-service[name='FOO'],post-modification,,,,,,"post-modification",
stop,2020-10-16T12:20:33.647,0.000,79,136,running,cli,,,/slow-service[name='FOO'],post-modification,,,,,,"post-modification",
stop,2020-10-16T12:20:33.648,0.034,79,136,running,cli,,,/slow-service[name='FOO'],,,,,,,"run service",
stop,2020-10-16T12:20:33.648,0.038,79,136,running,cli,,,,,,,,,,"run transforms and transaction hooks",
start,2020-10-16T12:20:33.648,,79,136,running,cli,,,,,,,,,,"mark inactive",
stop,2020-10-16T12:20:33.649,0.000,79,136,running,cli,,,,,,,,,,"mark inactive",
start,2020-10-16T12:20:33.649,,79,136,running,cli,,,,,,,,,,"pre validate",
stop,2020-10-16T12:20:33.649,0.000,79,136,running,cli,,,,,,,,,,"pre validate",
start,2020-10-16T12:20:33.649,,79,136,running,cli,,,,,,,,,,"run validation over the changeset",
stop,2020-10-16T12:20:33.650,0.000,79,136,running,cli,,,,,,,,,,"run validation over the changeset",
start,2020-10-16T12:20:33.650,,79,136,running,cli,,,,,,,,,,"run dependency-triggered validation",
stop,2020-10-16T12:20:33.650,0.000,79,136,running,cli,,,,,,,,,,"run dependency-triggered validation",
start,2020-10-16T12:20:33.650,,79,136,running,cli,,,,,,,,,,"check configuration policies",
stop,2020-10-16T12:20:33.650,0.000,79,136,running,cli,,,,,,,,,,"check configuration policies",
stop,2020-10-16T12:20:33.650,0.044,79,136,running,cli,,validate,,,,,,,,"validate",
start,2020-10-16T12:20:33.650,,79,136,running,cli,,write-start,,,,,,,,"write-start",
info,2020-10-16T12:20:33.650,,79,136,running,cli,cdb,write-start,,,,,,,,"write-start",
start,2020-10-16T12:20:33.650,,79,136,running,cli,,,,,,,,,,"check data kickers",
stop,2020-10-16T12:20:33.650,0.000,79,136,running,cli,,,,,,,,,,"check data kickers",
stop,2020-10-16T12:20:33.651,0.001,79,136,running,cli,,write-start,,,,,,,,"write-start",
start,2020-10-16T12:20:33.651,,79,136,running,cli,,prepare,,,,,,,,"prepare",
info,2020-10-16T12:20:33.651,,79,136,running,cli,cdb,prepare,,,,,,,,"prepare",
info,2020-10-16T12:20:33.654,,79,136,running,cli,ncs-internal-device-mgr,prepare,,,,,,,,"prepare",
stop,2020-10-16T12:20:33.657,0.005,79,136,running,cli,,prepare,,,,,,,,"prepare",
start,2020-10-16T12:20:33.657,,79,136,running,cli,,commit,,,,,,,,"commit",
info,2020-10-16T12:20:33.657,,79,136,running,cli,cdb,commit,,,,,,,,"commit",
info,2020-10-16T12:20:33.659,,79,136,running,cli,ncs-internal-service-mux,commit,,,,,,,,"commit",
info,2020-10-16T12:20:33.659,,79,136,running,cli,ncs-internal-device-mgr,commit,,,,,,,,"commit",
info,2020-10-16T12:20:33.660,,79,136,running,cli,,,,,,,,,,"releasing transaction lock",
stop,2020-10-16T12:20:33.660,0.003,79,136,running,cli,,commit,,,,,,,,"commit",
stop,2020-10-16T12:20:33.660,0.055,79,136,running,cli,,,,,,,,,,"applying transaction",
