TIMESTAMP,TID,SESSION ID,CONTEXT,SUBSYSTEM,PHASE,SERVICE,SERVICE PHASE,COMMIT QUEUE ID,NODE,DEVICE,DEVICE PHASE,PACKAGE,DURATION,MESSAGE
2020-10-19T12:55:22.535,48,39,cli,,,,,,,,,,,"applying transaction..."
2020-10-19T12:55:22.535,48,39,cli,,validate,,,,,,,,,"entering validate phase..."
2020-10-19T12:55:22.535,48,39,cli,,,,,,,,,,,"grabbing transaction lock..."
2020-10-19T12:55:22.536,48,39,cli,,,,,,,,,,0.000,"grabbing transaction lock ok"
2020-10-19T12:55:22.536,48,39,cli,,,,,,,,,,,"creating rollback file..."
2020-10-19T12:55:22.549,48,39,cli,,,,,,,,,,0.013,"creating rollback file ok"
2020-10-19T12:55:22.549,48,39,cli,,,,,,,,,,,"run transforms and transaction hooks..."
2020-10-19T12:55:22.550,48,39,cli,,,,,,,,,,0.000,"run transforms and transaction hooks done"
2020-10-19T12:55:22.550,48,39,cli,,,,,,,,,,,"mark inactive..."
2020-10-19T12:55:22.550,48,39,cli,,,,,,,,,,0.000,"mark inactive done"
2020-10-19T12:55:22.551,48,39,cli,,,,,,,,,,,"pre validate..."
2020-10-19T12:55:22.551,48,39,cli,,,,,,,,,,0.000,"pre validate done"
2020-10-19T12:55:22.551,48,39,cli,,,,,,,,,,,"run validation over the changeset..."
2020-10-19T12:55:22.551,48,39,cli,,,,,,,,,,0.000,"run validation over the changeset done"
2020-10-19T12:55:22.551,48,39,cli,,,,,,,,,,,"run dependency-triggered validation..."
2020-10-19T12:55:22.554,48,39,cli,,,,,,,,,,0.002,"run dependency-triggered validation done"
2020-10-19T12:55:22.554,48,39,cli,,,,,,,,,,,"check configuration policies..."
2020-10-19T12:55:22.555,48,39,cli,,,,,,,,,,0.000,"check configuration policies done"
2020-10-19T12:55:22.555,48,39,cli,,validate,,,,,,,,0.019,"leaving validate phase"
2020-10-19T12:55:22.555,48,39,cli,,write-start,,,,,,,,,"entering write-start phase..."
2020-10-19T12:55:22.555,48,39,cli,,,,,,,,,,,"check data kickers..."
2020-10-19T12:55:22.555,48,39,cli,,,,,,,,,,0.000,"check data kickers done"
2020-10-19T12:55:22.556,48,39,cli,,write-start,,,,,,,,0.001,"leaving write-start phase"
2020-10-19T12:55:22.556,48,39,cli,,prepare,,,,,,,,,"entering prepare phase..."
2020-10-19T12:55:22.563,48,39,cli,,prepare,,,,,,,,0.006,"leaving prepare phase"
2020-10-19T12:55:22.563,48,39,cli,,commit,,,,,,,,,"entering commit phase..."
2020-10-19T12:55:22.566,48,39,cli,cdb,,,,,,,,,,"delivering commit subscription notifications at prio 12"
2020-10-19T12:55:22.566,48,39,cli,cdb,,,,,,,,,,"all commit subscription notifications acknowledged"
2020-10-19T12:55:22.568,48,39,cli,,,,,,,,,,,"releasing transaction lock"
2020-10-19T12:55:22.568,48,39,cli,,commit,,,,,,,,0.004,"leaving commit phase"
2020-10-19T12:55:22.568,48,39,cli,,,,,,,,,,0.032,"applying transaction done"
