EVENT TYPE,TRACE ID,SPAN ID,PARENT SPAN,TIMESTAMP,DURATION,SESSION ID,TRANSACTION ID,DATASTORE,CONTEXT,SUBSYSTEM,PHASE,SERVICE,SERVICE PHASE,COMMIT QUEUE ID,NODE,DEVICE,DEVICE PHASE,PACKAGE,MESSAGE,ANNOTATION,STRUCTURED
start,bc89c320-81d6-45ae-ac7d-f4ca6e42afc6,42f623ff5cbe4b45,,2020-10-16T12:19:34.347,,54,76,running,cli,,,,,,,,,,transaction,,{}
start,bc89c320-81d6-45ae-ac7d-f4ca6e42afc6,73ea66f8a91ae65a,42f623ff5cbe4b45,2020-10-16T12:19:34.347,,54,76,running,cli,,,,,,,,,,applying transaction,,{}
start,bc89c320-81d6-45ae-ac7d-f4ca6e42afc6,cdad084746d53b6b,73ea66f8a91ae65a,2020-10-16T12:19:34.348,,54,76,running,cli,,validate,,,,,,,,validate,,{}
start,bc89c320-81d6-45ae-ac7d-f4ca6e42afc6,dc3893af9695bd49,cdad084746d53b6b,2020-10-16T12:19:34.348,,54,76,running,cli,,,,,,,,,,grabbing transaction lock,,{}
stop,bc89c320-81d6-45ae-ac7d-f4ca6e42afc6,dc3893af9695bd49,cdad084746d53b6b,2020-10-16T12:19:34.352,0.004,54,76,running,cli,,,,,,,,,,grabbing transaction lock,,{}
start,bc89c320-81d6-45ae-ac7d-f4ca6e42afc6,7378ba19604e1c11,cdad084746d53b6b,2020-10-16T12:19:34.352,,54,76,running,cli,,,,,,,,,,holding transaction lock,,{}
start,bc89c320-81d6-45ae-ac7d-f4ca6e42afc6,b60eeeacf03da62d,cdad084746d53b6b,2020-10-16T12:19:34.352,,54,76,running,cli,,,,,,,,,,creating rollback file,,{}
stop,bc89c320-81d6-45ae-ac7d-f4ca6e42afc6,b60eeeacf03da62d,cdad084746d53b6b,2020-10-16T12:19:34.388,0.036,54,76,running,cli,,,,,,,,,,creating rollback file,,{}
start,bc89c320-81d6-45ae-ac7d-f4ca6e42afc6,018226c4ab51649f,cdad084746d53b6b,2020-10-16T12:19:34.389,,54,76,running,cli,,,,,,,,,,run transforms and transaction hooks,,{}
stop,bc89c320-81d6-45ae-ac7d-f4ca6e42afc6,018226c4ab51649f,cdad084746d53b6b,2020-10-16T12:19:34.389,0.000,54,76,running,cli,,,,,,,,,,run transforms and transaction hooks,,{}
start,bc89c320-81d6-45ae-ac7d-f4ca6e42afc6,b6bef6fec0d2f715,cdad084746d53b6b,2020-10-16T12:19:34.389,,54,76,running,cli,,,,,,,,,,mark inactive,,{}
stop,bc89c320-81d6-45ae-ac7d-f4ca6e42afc6,b6bef6fec0d2f715,cdad084746d53b6b,2020-10-16T12:19:34.389,0.000,54,76,running,cli,,,,,,,,,,mark inactive,,{}
start,bc89c320-81d6-45ae-ac7d-f4ca6e42afc6,03dda1f2c41df12c,cdad084746d53b6b,2020-10-16T12:19:34.390,,54,76,running,cli,,,,,,,,,,pre validate,,{}
stop,bc89c320-81d6-45ae-ac7d-f4ca6e42afc6,03dda1f2c41df12c,cdad084746d53b6b,2020-10-16T12:19:34.390,0.000,54,76,running,cli,,,,,,,,,,pre validate,,{}
start,bc89c320-81d6-45ae-ac7d-f4ca6e42afc6,5c802115c855b942,cdad084746d53b6b,2020-10-16T12:19:34.390,,54,76,running,cli,,,,,,,,,,run validation over the changeset,,{}
stop,bc89c320-81d6-45ae-ac7d-f4ca6e42afc6,5c802115c855b942,cdad084746d53b6b,2020-10-16T12:19:34.390,0.000,54,76,running,cli,,,,,,,,,,run validation over the changeset,,{}
start,bc89c320-81d6-45ae-ac7d-f4ca6e42afc6,0897d2a96e926f8e,cdad084746d53b6b,2020-10-16T12:19:34.390,,54,76,running,cli,,,,,,,,,,run dependency-triggered validation,,{}
stop,bc89c320-81d6-45ae-ac7d-f4ca6e42afc6,0897d2a96e926f8e,cdad084746d53b6b,2020-10-16T12:19:34.401,0.010,54,76,running,cli,,,,,,,,,,run dependency-triggered validation,,{}
start,bc89c320-81d6-45ae-ac7d-f4ca6e42afc6,07b8782b4499eaa0,cdad084746d53b6b,2020-10-16T12:19:34.401,,54,76,running,cli,,,,,,,,,,check configuration policies,,{}
stop,bc89c320-81d6-45ae-ac7d-f4ca6e42afc6,07b8782b4499eaa0,cdad084746d53b6b,2020-10-16T12:19:34.401,0.000,54,76,running,cli,,,,,,,,,,check configuration policies,,{}
stop,bc89c320-81d6-45ae-ac7d-f4ca6e42afc6,cdad084746d53b6b,73ea66f8a91ae65a,2020-10-16T12:19:34.401,0.053,54,76,running,cli,,validate,,,,,,,,validate,,{}
start,bc89c320-81d6-45ae-ac7d-f4ca6e42afc6,c1684bf326d563dc,73ea66f8a91ae65a,2020-10-16T12:19:34.401,,54,76,running,cli,,write-start,,,,,,,,write-start,,{}
info,bc89c320-81d6-45ae-ac7d-f4ca6e42afc6,73ea66f8a91ae65a,c1684bf326d563dc,2020-10-16T12:19:34.401,,54,76,running,cli,cdb,write-start,,,,,,,,write-start,,{}
start,bc89c320-81d6-45ae-ac7d-f4ca6e42afc6,9e3fe10a05b67d78,c1684bf326d563dc,2020-10-16T12:19:34.401,,54,76,running,cli,,,,,,,,,,check data kickers,,{}
stop,bc89c320-81d6-45ae-ac7d-f4ca6e42afc6,9e3fe10a05b67d78,c1684bf326d563dc,2020-10-16T12:19:34.402,0.000,54,76,running,cli,,,,,,,,,,check data kickers,,{}
stop,bc89c320-81d6-45ae-ac7d-f4ca6e42afc6,c1684bf326d563dc,73ea66f8a91ae65a,2020-10-16T12:19:34.402,0.001,54,76,running,cli,,write-start,,,,,,,,write-start,,{}
start,bc89c320-81d6-45ae-ac7d-f4ca6e42afc6,b471efd9ab14602b,73ea66f8a91ae65a,2020-10-16T12:19:34.402,,54,76,running,cli,,prepare,,,,,,,,prepare,,{}
info,bc89c320-81d6-45ae-ac7d-f4ca6e42afc6,73ea66f8a91ae65a,b471efd9ab14602b,2020-10-16T12:19:34.411,,54,76,running,cli,cdb,prepare,,,,,,,,prepare,,{}
info,bc89c320-81d6-45ae-ac7d-f4ca6e42afc6,73ea66f8a91ae65a,b471efd9ab14602b,2020-10-16T12:19:34.419,,54,76,running,cli,ncs-internal-device-mgr,prepare,,,,,,,,prepare,,{}
stop,bc89c320-81d6-45ae-ac7d-f4ca6e42afc6,b471efd9ab14602b,73ea66f8a91ae65a,2020-10-16T12:19:34.432,0.029,54,76,running,cli,,prepare,,,,,,,,prepare,,{}
start,bc89c320-81d6-45ae-ac7d-f4ca6e42afc6,9c7bdadf89525d2b,73ea66f8a91ae65a,2020-10-16T12:19:34.432,,54,76,running,cli,,commit,,,,,,,,commit,,{}
info,bc89c320-81d6-45ae-ac7d-f4ca6e42afc6,73ea66f8a91ae65a,9c7bdadf89525d2b,2020-10-16T12:19:34.432,,54,76,running,cli,cdb,commit,,,,,,,,commit,,{}
info,bc89c320-81d6-45ae-ac7d-f4ca6e42afc6,73ea66f8a91ae65a,9c7bdadf89525d2b,2020-10-16T12:19:34.459,,54,76,running,cli,ncs-internal-service-mux,commit,,,,,,,,commit,,{}
info,bc89c320-81d6-45ae-ac7d-f4ca6e42afc6,73ea66f8a91ae65a,9c7bdadf89525d2b,2020-10-16T12:19:34.459,,54,76,running,cli,ncs-internal-device-mgr,commit,,,,,,,,commit,,{}
info,bc89c320-81d6-45ae-ac7d-f4ca6e42afc6,73ea66f8a91ae65a,9c7bdadf89525d2b,2020-10-16T12:19:34.469,,54,76,running,cli,,,,,,,,,,releasing transaction lock,,{}
stop,bc89c320-81d6-45ae-ac7d-f4ca6e42afc6,7378ba19604e1c11,cdad084746d53b6b,2020-10-16T12:19:34.469,0.117,54,76,running,cli,,,,,,,,,,holding transaction lock,,{}
stop,bc89c320-81d6-45ae-ac7d-f4ca6e42afc6,9c7bdadf89525d2b,73ea66f8a91ae65a,2020-10-16T12:19:34.469,0.036,54,76,running,cli,,commit,,,,,,,,commit,,{}
stop,bc89c320-81d6-45ae-ac7d-f4ca6e42afc6,73ea66f8a91ae65a,42f623ff5cbe4b45,2020-10-16T12:19:34.469,0.121,54,76,running,cli,,,,,,,,,,applying transaction,,{}
stop,bc89c320-81d6-45ae-ac7d-f4ca6e42afc6,42f623ff5cbe4b45,,2020-10-16T12:19:34.469,0.122,54,76,running,cli,,,,,,,,,,transaction,,{}
