EVENT TYPE,TRACE ID,SPAN ID,PARENT SPAN,TIMESTAMP,DURATION,SESSION ID,TRANSACTION ID,DATASTORE,CONTEXT,SUBSYSTEM,PHASE,SERVICE,SERVICE PHASE,COMMIT QUEUE ID,NODE,DEVICE,DEVICE PHASE,PACKAGE,MESSAGE,ANNOTATION,STRUCTURED
start,8faa3dd8-f89d-46c6-a99e-32823763019d,7224b1b75b66bf19,,2020-10-16T09:54:22.382,,106,176673876,operational,system,,,,,,,,,,transaction,,{}
start,8faa3dd8-f89d-46c6-a99e-32823763019d,f88387c60f7858d5,7224b1b75b66bf19,2020-10-16T09:54:22.382,,106,176673876,operational,system,,,,,,,,,,applying transaction,,{}
start,8faa3dd8-f89d-46c6-a99e-32823763019d,8c95083f936c92c7,f88387c60f7858d5,2020-10-16T09:54:22.382,,106,176673876,operational,system,,write-start,,,,,,,,write-start,,{}
info,8faa3dd8-f89d-46c6-a99e-32823763019d,f88387c60f7858d5,8c95083f936c92c7,2020-10-16T09:54:22.382,,106,176673876,operational,system,cdb,write-start,,,,,,,,write-start,,{}
start,8faa3dd8-f89d-46c6-a99e-32823763019d,0a742b4c84adfd32,8c95083f936c92c7,2020-10-16T09:54:22.383,,106,176673876,operational,system,,,,,,,,,,check data kickers,,{}
stop,8faa3dd8-f89d-46c6-a99e-32823763019d,0a742b4c84adfd32,8c95083f936c92c7,2020-10-16T09:54:22.383,0.000,106,176673876,operational,system,,,,,,,,,,check data kickers,,{}
stop,8faa3dd8-f89d-46c6-a99e-32823763019d,8c95083f936c92c7,f88387c60f7858d5,2020-10-16T09:54:22.389,0.006,106,176673876,operational,system,,write-start,,,,,,,,write-start,,{}
start,8faa3dd8-f89d-46c6-a99e-32823763019d,af6f7c7a1fa2e458,f88387c60f7858d5,2020-10-16T09:54:22.389,,106,176673876,operational,system,,prepare,,,,,,,,prepare,,{}
info,8faa3dd8-f89d-46c6-a99e-32823763019d,f88387c60f7858d5,af6f7c7a1fa2e458,2020-10-16T09:54:22.389,,106,176673876,operational,system,cdb,prepare,,,,,,,,prepare,,{}
stop,8faa3dd8-f89d-46c6-a99e-32823763019d,af6f7c7a1fa2e458,f88387c60f7858d5,2020-10-16T09:54:22.389,0.000,106,176673876,operational,system,,prepare,,,,,,,,prepare,,{}
start,8faa3dd8-f89d-46c6-a99e-32823763019d,d8613b7bb8a6e877,f88387c60f7858d5,2020-10-16T09:54:22.389,,106,176673876,operational,system,,commit,,,,,,,,commit,,{}
info,8faa3dd8-f89d-46c6-a99e-32823763019d,f88387c60f7858d5,d8613b7bb8a6e877,2020-10-16T09:54:22.390,,106,176673876,operational,system,cdb,commit,,,,,,,,commit,,{}
stop,8faa3dd8-f89d-46c6-a99e-32823763019d,d8613b7bb8a6e877,f88387c60f7858d5,2020-10-16T09:54:22.393,0.004,106,176673876,operational,system,,,,,,,,,,commit,,{}
stop,8faa3dd8-f89d-46c6-a99e-32823763019d,f88387c60f7858d5,7224b1b75b66bf19,2020-10-16T09:54:22.393,0.010,106,176673876,operational,system,,,,,,,,,,applying transaction,,{}
stop,8faa3dd8-f89d-46c6-a99e-32823763019d,7224b1b75b66bf19,,2020-10-16T09:54:22.393,0.011,106,176673876,operational,system,,,,,,,,,,transaction,,{}
