EVENT TYPE,TRACE ID,SPAN ID,PARENT SPAN,TIMESTAMP,DURATION,SESSION ID,TRANSACTION ID,DATASTORE,CONTEXT,SUBSYSTEM,PHASE,SERVICE,SERVICE PHASE,COMMIT QUEUE ID,NODE,DEVICE,DEVICE PHASE,PACKAGE,MESSAGE,ANNOTATION,STRUCTURED
start,04e5a1ef-d605-452b-83db-70fb7d4c209f,97febc5c27a65dda,,2020-10-17T02:19:15.345,,35163,177216217,running,system,,,,,,,901-R2-29,,,transaction,,{}
start,04e5a1ef-d605-452b-83db-70fb7d4c209f,69da1c9571590f2f,97febc5c27a65dda,2020-10-17T02:19:15.345,,35163,177216217,running,system,,,,,,,901-R2-29,,,sync-from,,{}
start,04e5a1ef-d605-452b-83db-70fb7d4c209f,f99d9316729b17b2,69da1c9571590f2f,2020-10-17T02:19:15.346,,35163,177216217,running,system,,,,,,,901-R2-29,,,taking device lock,,{}
stop,04e5a1ef-d605-452b-83db-70fb7d4c209f,f99d9316729b17b2,69da1c9571590f2f,2020-10-17T02:19:15.346,0.000,35163,177216217,running,system,,,,,,,901-R2-29,,,taking device lock,,{}
start,04e5a1ef-d605-452b-83db-70fb7d4c209f,3c1a1efe916d8fbc,69da1c9571590f2f,2020-10-17T02:19:15.360,,35163,177216217,running,system,,,,,,,901-R2-29,connect,,connect,,{}
stop,04e5a1ef-d605-452b-83db-70fb7d4c209f,3c1a1efe916d8fbc,69da1c9571590f2f,2020-10-17T02:19:15.361,0.001,35163,177216217,running,system,,,,,,,901-R2-29,connect,,connect,,{}
start,04e5a1ef-d605-452b-83db-70fb7d4c209f,0ddd939d0d99f5ff,69da1c9571590f2f,2020-10-17T02:19:15.362,,35163,177216217,running,system,,,,,,,901-R2-29,show,,show,,{}
stop,04e5a1ef-d605-452b-83db-70fb7d4c209f,0ddd939d0d99f5ff,69da1c9571590f2f,2020-10-17T02:26:00.347,404.985,35163,177216217,running,system,,,,,,,901-R2-29,show,,show,,{}
start,04e5a1ef-d605-452b-83db-70fb7d4c209f,7220aa1686889e56,69da1c9571590f2f,2020-10-17T02:26:00.604,,35163,177216217,running,system,,,,,,,901-R2-29,get-trans-id,,get-trans-id,,{}
stop,04e5a1ef-d605-452b-83db-70fb7d4c209f,7220aa1686889e56,69da1c9571590f2f,2020-10-17T02:26:00.604,0.000,35163,177216217,running,system,,,,,,,901-R2-29,get-trans-id,,get-trans-id,,{}
start,04e5a1ef-d605-452b-83db-70fb7d4c209f,724694338f9b6556,97febc5c27a65dda,2020-10-17T02:26:00.606,,35163,177216217,running,system,,,,,,,,,,applying transaction,,{}
start,04e5a1ef-d605-452b-83db-70fb7d4c209f,9020d05e854fb7a2,724694338f9b6556,2020-10-17T02:26:00.606,,35163,177216217,running,system,,validate,,,,,,,,validate,,{}
start,04e5a1ef-d605-452b-83db-70fb7d4c209f,969a9de0af23831b,9020d05e854fb7a2,2020-10-17T02:26:00.607,,35163,177216217,running,system,,,,,,,,,,run pre-trans-lock service callbacks,,{}
start,04e5a1ef-d605-452b-83db-70fb7d4c209f,b7b8883cd8c7cade,969a9de0af23831b,2020-10-17T02:26:00.607,,35163,177216217,running,system,,,,,,,,,,run transforms and transaction hooks,,{}
stop,04e5a1ef-d605-452b-83db-70fb7d4c209f,b7b8883cd8c7cade,969a9de0af23831b,2020-10-17T02:26:00.612,0.005,35163,177216217,running,system,,,,,,,,,,run transforms and transaction hooks,,{}
stop,04e5a1ef-d605-452b-83db-70fb7d4c209f,969a9de0af23831b,9020d05e854fb7a2,2020-10-17T02:26:00.612,0.005,35163,177216217,running,system,,,,,,,,,,run pre-trans-lock service callbacks,,{}
start,04e5a1ef-d605-452b-83db-70fb7d4c209f,c415fd38fac5d6ac,9020d05e854fb7a2,2020-10-17T02:26:00.612,,35163,177216217,running,system,,,,,,,,,,grabbing transaction lock,,{}
stop,04e5a1ef-d605-452b-83db-70fb7d4c209f,c415fd38fac5d6ac,9020d05e854fb7a2,2020-10-17T02:26:00.830,0.217,35163,177216217,running,system,,,,,,,,,,grabbing transaction lock,,{}
start,04e5a1ef-d605-452b-83db-70fb7d4c209f,8b10abdbbcfcb9f3,9020d05e854fb7a2,2020-10-17T02:26:00.830,,35163,177216217,running,system,,,,,,,,,,holding transaction lock,,{}
start,04e5a1ef-d605-452b-83db-70fb7d4c209f,634a635a72024201,9020d05e854fb7a2,2020-10-17T02:26:00.830,,35163,177216217,running,system,,,,,,,,,,creating rollback file,,{}
stop,04e5a1ef-d605-452b-83db-70fb7d4c209f,634a635a72024201,9020d05e854fb7a2,2020-10-17T02:26:00.924,0.093,35163,177216217,running,system,,,,,,,,,,creating rollback file,,{}
start,04e5a1ef-d605-452b-83db-70fb7d4c209f,e2745fb15584d219,9020d05e854fb7a2,2020-10-17T02:26:00.924,,35163,177216217,running,system,,,,,,,,,,run transforms and transaction hooks,,{}
stop,04e5a1ef-d605-452b-83db-70fb7d4c209f,e2745fb15584d219,9020d05e854fb7a2,2020-10-17T02:26:00.933,0.008,35163,177216217,running,system,,,,,,,,,,run transforms and transaction hooks,,{}
start,04e5a1ef-d605-452b-83db-70fb7d4c209f,a2dd22da641772bd,9020d05e854fb7a2,2020-10-17T02:26:00.933,,35163,177216217,running,system,,,,,,,,,,mark inactive,,{}
stop,04e5a1ef-d605-452b-83db-70fb7d4c209f,a2dd22da641772bd,9020d05e854fb7a2,2020-10-17T02:26:01.018,0.084,35163,177216217,running,system,,,,,,,,,,mark inactive,,{}
start,04e5a1ef-d605-452b-83db-70fb7d4c209f,cb553749f88129c7,9020d05e854fb7a2,2020-10-17T02:26:01.024,,35163,177216217,running,system,,,,,,,,,,pre validate,,{}
stop,04e5a1ef-d605-452b-83db-70fb7d4c209f,cb553749f88129c7,9020d05e854fb7a2,2020-10-17T02:26:01.105,0.080,35163,177216217,running,system,,,,,,,,,,pre validate,,{}
start,04e5a1ef-d605-452b-83db-70fb7d4c209f,c0fa77ea2edb7331,9020d05e854fb7a2,2020-10-17T02:26:01.105,,35163,177216217,running,system,,,,,,,,,,run validation over the changeset,,{}
stop,04e5a1ef-d605-452b-83db-70fb7d4c209f,c0fa77ea2edb7331,9020d05e854fb7a2,2020-10-17T02:26:01.108,0.002,35163,177216217,running,system,,,,,,,,,,run validation over the changeset,,{}
start,04e5a1ef-d605-452b-83db-70fb7d4c209f,499279e0ea3eb6ce,9020d05e854fb7a2,2020-10-17T02:26:01.109,,35163,177216217,running,system,,,,,,,,,,run dependency-triggered validation,,{}
stop,04e5a1ef-d605-452b-83db-70fb7d4c209f,499279e0ea3eb6ce,9020d05e854fb7a2,2020-10-17T02:26:01.112,0.003,35163,177216217,running,system,,,,,,,,,,run dependency-triggered validation,,{}
start,04e5a1ef-d605-452b-83db-70fb7d4c209f,d659c95d3c09a6b1,9020d05e854fb7a2,2020-10-17T02:26:01.112,,35163,177216217,running,system,,,,,,,,,,check configuration policies,,{}
stop,04e5a1ef-d605-452b-83db-70fb7d4c209f,d659c95d3c09a6b1,9020d05e854fb7a2,2020-10-17T02:26:01.113,0.000,35163,177216217,running,system,,,,,,,,,,check configuration policies,,{}
info,04e5a1ef-d605-452b-83db-70fb7d4c209f,69da1c9571590f2f,9020d05e854fb7a2,2020-10-17T02:26:01.114,,35163,177216217,running,system,,,,,,,,,,transaction empty,,{}
info,04e5a1ef-d605-452b-83db-70fb7d4c209f,69da1c9571590f2f,9020d05e854fb7a2,2020-10-17T02:26:01.116,,35163,177216217,running,system,,,,,,,,,,releasing transaction lock,,{}
stop,04e5a1ef-d605-452b-83db-70fb7d4c209f,8b10abdbbcfcb9f3,9020d05e854fb7a2,2020-10-17T02:26:01.116,0.286,35163,177216217,running,system,,,,,,,,,,holding transaction lock,,{}
stop,04e5a1ef-d605-452b-83db-70fb7d4c209f,9020d05e854fb7a2,724694338f9b6556,2020-10-17T02:26:01.116,0.509,35163,177216217,running,system,,validate,,,,,,,,validate,,{}
stop,04e5a1ef-d605-452b-83db-70fb7d4c209f,724694338f9b6556,97febc5c27a65dda,2020-10-17T02:26:01.118,0.512,35163,177216217,running,system,,,,,,,,,,applying transaction,empty,{}
info,04e5a1ef-d605-452b-83db-70fb7d4c209f,69da1c9571590f2f,69da1c9571590f2f,2020-10-17T02:26:01.119,,35163,177216217,running,system,,,,,,,901-R2-29,,,releasing device lock,,{}
stop,04e5a1ef-d605-452b-83db-70fb7d4c209f,69da1c9571590f2f,97febc5c27a65dda,2020-10-17T02:26:01.121,405.775,35163,177216217,running,system,,,,,,,901-R2-29,,,sync-from,,{}
stop,04e5a1ef-d605-452b-83db-70fb7d4c209f,97febc5c27a65dda,,2020-10-17T02:26:01.121,405.776,35163,177216217,running,system,,,,,,,901-R2-29,,,transaction,,{}
